[gd_resource type="Environment" load_steps=2 format=2]

[sub_resource type="ProceduralSky" id=1]
sky_top_color = Color( 0.796078, 0.796078, 1, 1 )
sky_horizon_color = Color( 0.854902, 0.941176, 1, 1 )
ground_bottom_color = Color( 0.266667, 0.254902, 0.239216, 1 )
ground_horizon_color = Color( 0.32549, 0.286275, 0.266667, 1 )
ground_curve = 0.121257
sun_color = Color( 1, 0.862745, 0.509804, 1 )
sun_latitude = 45.0
sun_longitude = 45.0
texture_size = 1

[resource]
background_mode = 2
background_sky = SubResource( 1 )
background_color = Color( 1, 1, 1, 1 )
fog_color = Color( 0.52549, 0.545098, 0.560784, 1 )
fog_sun_color = Color( 1, 0.901961, 0.701961, 1 )
tonemap_mode = 4
ssao_enabled = true
ssao_radius = 0.5
ssao_radius2 = 1.0
ssao_quality = 2
dof_blur_far_quality = 2
glow_enabled = true
